…
    Warning: There was 1 warning in `summarize()`.
    ℹ In argument: `across(starts_with("f"), median, na.rm = TRUE)`.
    ℹ In group 1: `vowel = "ɔ"`.
    Caused by warning:
    ! The `...` argument of `across()` is deprecated as of dplyr 1.1.0.
    Supply arguments directly to `.fns` through an anonymous function instead.

      # Previously
      across(a:b, mean, na.rm = TRUE)

      # Now
      across(a:b, \(x) mean(x, na.rm = TRUE))

    # A tibble: 140 × 5
       id    vowel formant timepoint    hz
       <chr> <chr> <chr>   <chr>     <dbl>
     1 f1_ɔ  ɔ     f1      1          577 
     2 f2_ɔ  ɔ     f2      1         1367 
     3 f3_ɔ  ɔ     f3      1         2427 
     4 f4_ɔ  ɔ     f4      1         3422.
     5 f1_ɔ  ɔ     f1      2          642.
     6 f2_ɔ  ɔ     f2      2         1384 
     7 f3_ɔ  ɔ     f3      2         2429 
     8 f4_ɔ  ɔ     f4      2         3368.
     9 f1_ɔ  ɔ     f1      3          654 
    10 f2_ɔ  ɔ     f2      3         1434.
    # ℹ 130 more rows
…
