…
``` r
my_nurse_vowel_formant
```

    # A tibble: 140 × 6
       id    vowel formant timepoint    hz formant_bark_norms
       <chr> <chr> <chr>   <chr>     <dbl>              <dbl>
     1 f1_ɔ  ɔ     f1      1          577                5.57
     2 f2_ɔ  ɔ     f2      1         1367               10.5 
     3 f3_ɔ  ɔ     f3      1         2427               14.3 
     4 f4_ɔ  ɔ     f4      1         3422.              16.5 
     5 f1_ɔ  ɔ     f1      2          642.               6.08
     6 f2_ɔ  ɔ     f2      2         1384               10.6 
     7 f3_ɔ  ɔ     f3      2         2429               14.3 
     8 f4_ɔ  ɔ     f4      2         3368.              16.4 
     9 f1_ɔ  ɔ     f1      3          654                6.18
    10 f2_ɔ  ɔ     f2      3         1434.              10.8 
    # ℹ 130 more rows
…
